{
  "metaDataWallets": {
    "ic": {
      "address": "WBLYU4OZRHAAREOAQUUXWT72WVCGQZWURI5NVXYE",
      "privateKey": "CCA5C0FD6119F2368DD66E9312EDED844CA6086C565DAB61158466F279A29564",
      "publicKey": "B322A2B4BFC96C925CBC1ADDBB2556B44877FE14388ABCDF83D53303B393B187"
    },
    "msu": {
      "address": "WBSEN5MVQFXIZX32BCUMMFFYGDPKLKN6NRDXJNFO",
      "privateKey": "4AE4C95F1902B0C79B4FB31BE7B3FBBDEFEC26D7E871FDAD537ED6D576862177",
      "publicKey": "91203DDEAE7032D64465071D773AD3616AA5F9B2C65C6EF192FABC20F1B51EF7"
    },
    "msx": {
      "address": "WCAPHDKMSI45UFEPSKTYE6DPJZPBNXMXPGLLJK67",
      "privateKey": "7847216E7C83D98E80201972115BA57814C42FAB5F0E37F7B1052DD574C12E13",
      "publicKey": "AAD08243B22D968929893EAE09AEF3BD0C72E80DE09D3473792FC5C1F792856B"
    },
    "signers": [
      {
        "address": "WCZSXH3UKSUAJFFWXRCSKY7V55AKOR7F5VD3AZ7C",
        "privateKey": "F4BCE727442B52F1B01A1932DE4EC35A3381A16A7624FC1E63997B8E361DA9DA",
        "publicKey": "1C9C0FA10D4A4EF9745F666EB5024E7821384DB096CD064944C89E81DBBDE701"
      },
      {
        "address": "WCNKGLU6WHDMHO2QFN5Y7Z5MHMXQB6RTV2DC3DOY",
        "privateKey": "D43F9AADFD389896DA15F9E0672A7694D0B1A7A2338327A19F863C9BC7B034C8",
        "publicKey": "F5A58B3748A1AE5DA17923110FA4CC2C511BFF1BD81E10AF8324FE3BF8E2A385"
      },
      {
        "address": "WAZRQ33VCAZ47VJ44SWVFZDKTPHBLUI4VPNSLDJM",
        "privateKey": "5C317DFAB95C7469F8E68C7AB36416112CA52122C37C16605F7A11ABE939AE82",
        "publicKey": "0D1A7396FF82CAF91241DE287B709DEAD4BA4DBEA13FE388D73099BD7B4B8A1F"
      },
      {
        "address": "WDGN76WGJPIJ5OWK72VRDYMGZTJPCHDCMFQR6IJU",
        "privateKey": "57832AB599035F8355C254E092FA83B798B976774BDF2CDF7374A3A9905DB838",
        "publicKey": "EBFAD2D091B87BCE2041D187300953297376F45F02ED4A6FCBF1AE7F1505CBBB"
      },
      {
        "address": "WBAQGIWQCX2UFOADMXVXRU6327D7SGHI35CFL7CL",
        "privateKey": "8DB7517E63B3B8E16CFFAAD715B2A56FFC203263663824F03AAA9320E10456DE",
        "publicKey": "8C71970CB0AF7EC4E79C30982738D1BFFBB927781924439690197648BCA03CA4"
      }
    ],
    "wallets": [
      {
        "account": {
          "address": "WD2ON7A3RNJCGD6EO6I73DJNU7MGSEFPG5TMSZXH",
          "privateKey": "C5099DBB8FC016A9208B2ED9E42B43E2AC0481DBC05CFB07B42F5A084816A487",
          "publicKey": "6827D734C6E57C1A252336A321F73913D18946FA49CFEE9642EDC6711FB09A20"
        },
        "name": "escrow"
      },
      {
        "account": {
          "address": "WBZSOEAC5PLSB23BZYCB3CIJ5UICNKNE2GLASPNL",
          "privateKey": "4858D85A9376C0DD35AAC693B5122619720D1B60C4238209167666DCFD808623",
          "publicKey": "BBC832FA862D3557024D2A3B19243D2EDF6179F52D0AF9628EF94152C03F95BA"
        },
        "name": "env"
      },
      {
        "account": {
          "address": "WCOCJJF3O63H7WYFX5RIZZREVMU6MGSLDTVKP5EH",
          "privateKey": "D41B66F823D022B0F067CA129E2BA18131FAA78A4725AB249FC4CFE33C0CFDF6",
          "publicKey": "398454B0ECBD23F7C46904E80242D46C4B7C8B1E0E03803F542260609CBD6C97"
        },
        "name": "wss"
      },
      {
        "account": {
          "address": "WAI5TFZH5X3GDZXZN4T6SYT3LXHVJZTVP32JESWO",
          "privateKey": "DDD94E671EE83E3B1814ED1F03C1911B1D06934E9E3A5D8346DA507F7E16E446",
          "publicKey": "4F29CF9D0E71EEA17DED5C1C8CCFBCD5D7D613B26AAAB365344EED67A7FED983"
        },
        "name": "fxx"
      }
    ]
  },
  "providerA": {
    "account": {
      "address": "WCLMYGUQP6IKMDRJCIWEAX2OWVPB3QYMN6EG2PV5",
      "privateKey": "661F67966E5087AC5BAD8B0CCFF217040AC490BF1DCEC60B97C1DF792B7A3CB4",
      "publicKey": "EBD03930671A8C169B65A0E43FDD4738FAB45BE356B6F3F827E59A856231EB6C"
    },
    "interimNodes": [
      {
        "address": "WCDN2A4QOYDBN2H53RJOISVLTNRM63PMHL57PHXU",
        "privateKey": "0BF8EBE9274252E34848AF063F0B803A6DC76764E94F7E0E4C78F1200EA8E67D",
        "publicKey": "B2D471329101534DEF03702EF409084599EBEBA58CC5D2C3B639B613418B0130"
      },
      {
        "address": "WCA6CBIXCRCTB3E72LEKQ7ZSPLMFEMTO5YYGZLUM",
        "privateKey": "57C5D4FCC56725304D4C8403949A103E8D6C8B0BFC1959BED3D835B111D472B5",
        "publicKey": "8730ECCB752713046554627455A2695F31637E3F5F6ECD297ADA5DA909B861C3"
      },
      {
        "address": "WC5KB6PUR22YMCAQBOOP6O6PHJIALOFVC66R42ZZ",
        "privateKey": "EF78EF3E0EE01FC0E9655F73F345246FC40F008AC3EDA5C981635E8EFC742E18",
        "publicKey": "09FA8A45F89908155B9FC4220EF8FF2C15C048523ADDCD8E8FC830951A07B22F"
      },
      {
        "address": "WDYNDTYGXXAKVXYW7Z4APNBSCAOUZ45KXEIJ7CGF",
        "privateKey": "00B83FA552777B65512CB48E6D913DA3B9E23ADB874691E8A3285E31FFE5DD42",
        "publicKey": "F352C9623DBDE0C9B28101D1753F313C4429D35114333596E43D42EB7DE4E3CC"
      },
      {
        "address": "WDEM5QIJIAEVK27KVAWQ7AO4SKHVLQVF7MZFOMH7",
        "privateKey": "01B1C547E0E20A06646CEC865EC677095806CFEE89224E9004CD00C8B987CE7E",
        "publicKey": "493D618A6F7BF5D2E1BCE95E2ACCF9081F8D315036F7F90589775D76C225AB08"
      },
      {
        "address": "WD32JTYNPC7HDJXXGYXENKN4BP33MQHJKSX6RKAG",
        "privateKey": "8A80E18DAC9BB3E775DA2E51DE744E85BB0F1D3F6DAB41E1E51275AB85D32D03",
        "publicKey": "4AC25E89771DB1C75A8A9CE71112A969C7FC75EECA1457C2076ADDD7F36DA568"
      },
      {
        "address": "WCC3RVESRT4YWPZMYWWLMIDE4GJYKUW5PG4BAGIJ",
        "privateKey": "C0CAD3E92053E316ABF95202AF8798246F53E4A9E774367309CB2736DD566ADD",
        "publicKey": "56DC7894CFAA412FCCF72609B50F536AA7DBFFB4307BF0D4B1E14F3E817311E7"
      },
      {
        "address": "WB56JHYL2TPBUWRZGF6YSEWQEIEPIRWKRMN34TI2",
        "privateKey": "9F0F873805EAA2817E9251758AEC8F1961E47E75DD12DE3AC0CE1F0E6D028C46",
        "publicKey": "ADB8A76BC1283BCAB88FCBBB52360300A11507C0BDD134B192080F72C333CCB1"
      },
      {
        "address": "WBOKM4EB3NLUTK5EDTYCIYZ2D2W5LU6VA4CAHKXK",
        "privateKey": "78074D48618720B1F2CD3F0E230C4D1EC474646851274D0AD68ECB0AEE62378E",
        "publicKey": "718C74766429B7CD021F4284F6B7428C6AFFDE7D1AB43A7C514A402558228B34"
      },
      {
        "address": "WAHVISGLQ6R2RUPJUPOADUT2OMETIYWHNF2V2KKR",
        "privateKey": "AC2491975A431B9E473394B13BF7E311998C74D56C58E3DB3C0459ECB9E52986",
        "publicKey": "68849E65CCDEEF0DE6996F457234D2840C79DC232F30F4AABCC2D43425BA9B24"
      },
      {
        "address": "WDQT6E4KGNXM7D3HNJLBPMRXMONGSE5H3MX3SUAO",
        "privateKey": "369B0429010EBBCA569C2375AB9D8681236D6CAD92B999A59362962172401FC3",
        "publicKey": "E472D27B28A0BF77C70A5E97D57CAAA815B7EC7B01D71484BB723A462A0C40AF"
      },
      {
        "address": "WAJNEHZLFYOUHAJZPBPUVFO23S7KWN45O2WZHVBS",
        "privateKey": "8BF623847D7D7181702FDBDCE718E42FC00BBB6E7A1BF22E8D8A1B92C9CEBA16",
        "publicKey": "49043ACBCAC1E5074563A88046855EDB1932C4C6A9BA469AC772185A3127E933"
      },
      {
        "address": "WDPB7PKJAYXP5T5CVCICUPVM5VVIHHMKGBBQA63K",
        "privateKey": "6EFC84CD73E25DF81F90F462CEFD51AEC992F4E5BE7F35B36393B2E9F51A2A05",
        "publicKey": "AACFA942E752AF2641213E295E5A9AB2D1BB1B3584CBDFFAFC4572961C57820D"
      },
      {
        "address": "WA2XEXPNEF66T4LJRZFB2GVFIH7YV23KIHCCXQAG",
        "privateKey": "C1A952BE5D2FBDC4B0CD1EAA33E6C1F4D348354F3FED78BC514DDCDFF03ACDF6",
        "publicKey": "2D981CFC192F52565652AE1689BF3303D68258A91C455DBAE2F68E982DDD2821"
      },
      {
        "address": "WA6Y5U2DSEKMFTFJAOLIAHMZOP4L3EZQGKNWL2ZA",
        "privateKey": "D627BDB39EC69770C5078D7CEBA9805017B70FD6B010D359CE197AA68BF093ED",
        "publicKey": "E453918A7E8A6771FD9304CCE446D51CDE7054DEBFE655A21ED41D8D24ECC801"
      },
      {
        "address": "WCWBQ4HPSDOZ4XXOJ3HR4L5QXGTQMDQBHRI3UIHU",
        "privateKey": "7CE3241FBF76BEB910C0D14BD8B1AB23B8407C178DB87FB0F4D4505CF8780C3F",
        "publicKey": "FC60983381DE1E34797D4500C83B73662E5ACA98C07FA36BAE72BD3ED3112FB2"
      },
      {
        "address": "WAHCPUPK3RWG3BOMVTX4MCQ6Z6EZ2XYCBQD42GT2",
        "privateKey": "54190F708E963B9CAEEF0FEB097229C3C0C5AD876570F53C95D899B5833FACAF",
        "publicKey": "B57C39E643F097AB672B7FE8AC869BB6A9FC05877502F96C74923EAAFAC74813"
      },
      {
        "address": "WCRQBUWEHAARTTGT2SAJHP4ZYUXJPZGC3RCYXUMN",
        "privateKey": "8D73E03B5A6767EDF8577EB614F197FB24D338069ED779A91F79D110F8B5618D",
        "publicKey": "86228C70E5AD76F4D795981229851C7AD14E9736AEC1A20CC801F142356F60F9"
      },
      {
        "address": "WAMDDYRRMFLUN76OSUUSLB4YQ2ZEE6WJ6P72A4KU",
        "privateKey": "BA522682F47BB893143EFCFC4B914A8A054D96E76479A14D900F76C4124BE862",
        "publicKey": "3C4E14057CB1663F1356CD3345409E5FE26FF902D95498BCD07986EAB4DA7236"
      },
      {
        "address": "WBA64F57DTVTP6BP3KNXUUJLGC3HGEQZ6QLV3Y66",
        "privateKey": "34F0CEECA0BDC90C822677756EC164ED219704A965A620427E58500BB077E27F",
        "publicKey": "5B6D8D16B6FEBA6884A04B04FD5D826F15B6722676D23A4E1DBE3596AEE1BAE1"
      },
      {
        "address": "WCIRZ5WVCWZTVDTFKENKYUAVMR3GVYZAEV7XNZCK",
        "privateKey": "B38F758A580D3A65DEA16053CF28CEC06AC472AB1BE452D4C3EDAF3403D0F277",
        "publicKey": "9BE5BBD29C96E972518EA91039FF501C2DFF08C5749933511761704293BE4BD6"
      },
      {
        "address": "WBMMHUV4V5HU2KSQCPWPCMZQXKZIYWKXRVRWOZSN",
        "privateKey": "27987887280CE492A1ABC493C87F703D173B93E153608E1D0412F9071861B1D3",
        "publicKey": "26F29F1501BDCF31ECED488F21734A640A02A256BE00BD054401E3660FCDF1BA"
      },
      {
        "address": "WAIIFMD6IELHJS2XRFHSIWFXULUSG6MCNXX6325E",
        "privateKey": "5796EA92DBD69CCC58B4403E97E59417F915260FF8501E3D5A1E06DD269882D8",
        "publicKey": "9FD04307A1C35CDF7B638ED77EF0940D1007A0D37707579A32B2ECCAEFFE7668"
      },
      {
        "address": "WAZ4S764M5O7IFZMUB6EL2NAQDFK2BX7DV5DFQW7",
        "privateKey": "7BB606AFBFB66FEECCE097FAC2273E7ECC5E8064E0B984AFFA5CD20AC0DCD515",
        "publicKey": "EA7EB749F1EE13CB8E045C99A8201E16894A69D7F4D37288D13D51CBF51CF516"
      },
      {
        "address": "WAO7E4OWRLEGYKWC63QFF34XOP66K7D4OAIBT6RX",
        "privateKey": "28477BA2BC31BC1045FA062313D494121E26A74F81406E0B32052162F2D68DEB",
        "publicKey": "3122981E82EA49A0A8C78B3E95DB43B2196A6D3BD404A8D327D10CA38AF12ADC"
      },
      {
        "address": "WBL3IB45GZUDR7L6J6QHJPDCY62ZIQKSEQFNLKFC",
        "privateKey": "2185C4ED4174BF3299CECB2291B89ED1782BEB40FD5154CBF7A725FAA04678FA",
        "publicKey": "4743074DB421B3915AA88AD21FAE1DC723B781D253CC63D864CFE00CC9CF4963"
      },
      {
        "address": "WDFUHG5X5MDJOUUMZQVEI6RKRYPPJBCSIXIE4BGD",
        "privateKey": "24DB7F6F0E2D87CF3D6B9FD1422F4BA7242831E14E00648EF92341374F76BCDE",
        "publicKey": "ECD7FA280768881BE26279943E33297614C4671A3B92573FDD4C6BC500EAC95D"
      },
      {
        "address": "WD4PLTMMMMJ7ZQ33X5KEH57RW2HW2YS4CG4EJAWO",
        "privateKey": "084DA52BEFB3F095149E2AA66175B4225B8CBA356CC85B3EA9B14E87F4603D3A",
        "publicKey": "1F15EE6ECA7F2CEC51F4E114426962C33D0735607FAD4C5EA61E060511C468E7"
      },
      {
        "address": "WCI4GUAI2XIEWYQGGZDSREVGMTAJTHUTQR3L5M44",
        "privateKey": "4BE965DD8527D1D33CBB2D04FE73D3B24638F69013C07AFDF849D12C5FF489BB",
        "publicKey": "1551E8C4AC76F796BEAA9735BFB3A6143CA3FBDD2B31B497FEE71DF0CB3897B4"
      },
      {
        "address": "WDGFSOFQMT3I7O4BRJL6T3DANLLZIDRYM5ZPFLD3",
        "privateKey": "29DAF4E4E13B769DD1A942A67D24BCFFB4204CB0CA8C04DB071E487D4B117CFE",
        "publicKey": "59A8DEC278408479315AC5F59CBBFE0A69D459DA21DA42CD467DB70A7C0EF566"
      },
      {
        "address": "WD7HQZPEJ7E2SXFY45IZYNUIFKYCCW63USI3V3BB",
        "privateKey": "7A1D7DA8013B32C1953FD082BF99D994167B2D9BB2D1942A29902B98952A88AA",
        "publicKey": "F4D5FDC7F7E15312DC9508615CA25A0EED7128F423666E908896887DD572768C"
      },
      {
        "address": "WC3DNS7DRKNVPQDIR7C7BL7KH4Q4ISDIAHGNQSIA",
        "privateKey": "5BA7E716513D96B776442685D67E0FBF3663DF02BCA223FCEF61AD4AABCA127C",
        "publicKey": "A36878EBFC2B0F826A5C38FAE56ACCD2105C5E596C4855DE94AFFF2F66B6CDEE"
      },
      {
        "address": "WAYZWP7GBUST73BSHA4JZ5RZNE3O42PKJO6ZJOHL",
        "privateKey": "40938FD0C3C042E879CE2AFFBAA0C166AEF3F313AF99829421F8479C3207A0FD",
        "publicKey": "C20E5D5D3D4F6708E7B02492A3B004D17D920FFDDD5729A351C090B348F50EF3"
      },
      {
        "address": "WA35G2TOEFRZICMZVMKAAHTGB3DT7JW45XK4SCOT",
        "privateKey": "8142D93457628B88669856C7FC109E32359C49956692F1A17A75C54EC1B8E97E",
        "publicKey": "A45F337B3AC5C23F1B2BED3952F36CE8BC94EC6183CC42F239387766C8D1C722"
      },
      {
        "address": "WCJ4T3QLICXCVLHYL2XGEOWGF5HP6E5IENE57GTU",
        "privateKey": "49A52F99A6F10598DBFB04E5DD96918C6A6B2EE83D64FEEE2F5228AAC8821A36",
        "publicKey": "4C6F8FF770639227A076B88389A08166F4427180CE42436BB6881F6521D233F7"
      },
      {
        "address": "WBSILK2GKQ72VZNUDRK7SCS3Q7NAJHGOOGTMEC7U",
        "privateKey": "6C1E63DEE654ADE85399AE379A9B3DD5850742B8534BBCF04D7764BEC3BDD679",
        "publicKey": "9C7BE9BF2ED6D8713C8A926962D6B447D0CC9C87A29347BBA08D53D3804ED665"
      },
      {
        "address": "WA34E2OMTJIQY2WOCEJFOAABESNPMMIBCZCMH7XH",
        "privateKey": "1526F551127B80DEE03FA53941DAEB6713A8A4583AC9A7CCB9386709112C50C2",
        "publicKey": "A46344B993D0F0CA9EF26CE01B86F2E92294CD5B8FA17CE9FE26005E751E4878"
      },
      {
        "address": "WBTLSLHDCRX2QLKX5ZNB6UBDQ3AL2EVMML2YLK2P",
        "privateKey": "39004113E07A1C34B7BC1973A9CB397ECFD130F45B1A6506E561E8B4D23E17B5",
        "publicKey": "FE5D46277CC8DAEF25E9CB5D32999413835F35EFACAAC47611F4558D20476F00"
      },
      {
        "address": "WBHBWSCFWUYJR6MBEXYLS3XRQJQDP32GANC4V2KZ",
        "privateKey": "6443CDB4D2E3F201A4B7ED6E603F4B1AD3CDB3D5577CBDC81743DA31F65EBB40",
        "publicKey": "3AACAD01BB64DC0BF060C064D466401CBC5BAAAEF3C78A307172284877EFCE83"
      },
      {
        "address": "WCA7O3PD3FZPD777LCC6B6HL52XYM22H2KLWS2L3",
        "privateKey": "D93BBC994B7D443CBE3A93B528376350BA14021EC646F360AA4D319170A79801",
        "publicKey": "F896EBEAC4AA6F5A99ECA5561B0A0228CD9940E3A6F13F112A64A82F5E203E4B"
      },
      {
        "address": "WBDZWDTJYFZK3PLOEOK3XHFWBSOEUQ6IUJEZU5R4",
        "privateKey": "5C471FB16E9FDD8A784F5ADA62828F4450A6CF3351C4607FAB2B81364B236B1B",
        "publicKey": "150DA5941DF9C7B7800E6CA00191E8F2086FF8AAEAF58F17331482234F2AA97A"
      },
      {
        "address": "WAQWB6GYTTW2JZLG2ODK6Q2J2HNYEGABEJXGC4GU",
        "privateKey": "DFCF06D3DFEC22F2177D09E041E959305BF20C998765E965F03446EF374B75E3",
        "publicKey": "9173F6511E87780B450E45CC37A3E5C65E37C4E82E7B67F5647E2753DA0BA698"
      },
      {
        "address": "WANH6GBDIFVN6OIFBKZF6EK5WCILBHCVMY4V2C6D",
        "privateKey": "6B13E96314591C0A01A583CA15F30A3F417C1B7BBFDA73F905BAE19014A291DC",
        "publicKey": "F8B81FEF3856ECA64E6C00E8442A091C894E302FCF7DB509C7D3B71044BA0655"
      },
      {
        "address": "WAENFFVOCQ2ZFTUQECARFVXE56HZMEZFDPP6A42B",
        "privateKey": "80EBC1943BAC6FC8DB43B0C419C32EB1F8A145F905935DCAC2499ACE662A2346",
        "publicKey": "A52938A4A7C1A27AEB712B6958A8530C9A45621465A7EEA2472B3015B5E07C3A"
      },
      {
        "address": "WBQXONPJYBF2QGCL7L5HSFYZKQP4OJKIRGJISVAW",
        "privateKey": "0CE5152D265CBC1787EBB4325CA44C1D29C4569DBB66514DE232C25967F575FE",
        "publicKey": "5A6CCEE7F53496FF8693081D816150687DF350E584C0F1D8705BB12AAA79BAD7"
      },
      {
        "address": "WCM5U5P5ED4HTEBM5FQAHAHRK7N3KWP5ER4VWQS4",
        "privateKey": "B1CD728A0ECC5F0FE960662CFBBB793AE3AAD87F8F64D389CCA2B1B5984C7D4A",
        "publicKey": "8B42564885B8449A5622A05E0AE945331E99587173381A2AF18E46E4F04477D0"
      },
      {
        "address": "WBTMDVEXXHYN4ATHIM2GGXPUWTY5INSCS7H3EELH",
        "privateKey": "D630ABED1651565A41907713AFBDA111AFEDE80C16059DF62FEC33656489DF81",
        "publicKey": "C70A0D1C28F5BE7B098F43A746A5D08D3D12805DB667F424E381FC7B7ED0CBB5"
      },
      {
        "address": "WCKQXZ4O4PNZODULJ7EI3FGU6NIE2G4NVHSJQMGJ",
        "privateKey": "BD39F3FD813F458283372B9072E8557E190E9CEF98AC46FC1C8D49A91A13C960",
        "publicKey": "28AC25298D133CC176E2FFAC44758A96470A080169FE1408D0CE783F00934DF9"
      },
      {
        "address": "WC7QC3OSONAUO265SEYW45TBNKB3BVTY2VNQKNRB",
        "privateKey": "619B4AFACD8BB2906E8482EA464406439A9E18CF02F45A8A359273F1E44D69BC",
        "publicKey": "48ED433F0E410928C041613C97D23669B150DE99EC18489605502DE99BF67E5D"
      },
      {
        "address": "WCZC74OGEIUPMJCSKOG4TOQEXEY7V3AENEGXJTF2",
        "privateKey": "9317DE51700271AE53C080185D23D830EBD58E668032DDA4DF4976BE441933A2",
        "publicKey": "D60EA6ECC2959783861447D2700BC30CF820E9572FDDD6DB48C621AC3F1C3EEC"
      },
      {
        "address": "WA2KKJZDKKF55KBLLG73HEADOFVG6XWWG6R4VWP4",
        "privateKey": "7A09EDDFB9BC759E07630446A1346DDEDE84326C5262AD1682E9E6DCD86528D5",
        "publicKey": "82A9BB6A12B8322354F592F17DCDFFD48A02CAEB5CAA5905A9261DFF4550BC0A"
      }
    ],
    "signerNodes": {
      "autoSign": {
        "account": {
          "address": "WAVVSQP7P2GGYZAMJBH7NM4L6FVFBILGM7PZEQVE",
          "privateKey": "34CFEBDFD7412D0929940376EB45C3DF1AD7689FBDC1E75A658C3036B3EEF0B7",
          "publicKey": "5AFC9AFD646ADC2BD27A97744A4AEF9315328794ECC973379198B164971C9B77"
        },
        "signers": [
          {
            "address": "WBVP6J3QKEFGAIKRZFPLZFJCDRGYNJXHF5BDF7JC",
            "privateKey": "7BB1F4E6A0252992A71016EFD15656BEC0A61557F849E7C62A0B5ED1A9B8F747",
            "publicKey": "AC6DAC59817A5CA53E2ACB2657CDE6A5F4090AC18E93F18287D2897600AF29BD"
          },
          {
            "address": "WB64IH3YMVFHT7BWGB6T5R6PXE7INSHW4BH4ZDMJ",
            "privateKey": "48A8BF6F7FC5CF2D5CB5455A6337C3566ED00E17D2E7BE63BAE58DFEDC076B88",
            "publicKey": "6814891ACCEC408F7C1885BCF7CB261DAA18C603A33595F672DD1A1FDC9CB2E1"
          }
        ]
      },
      "director": {
        "account": {
          "address": "WAGZRWRKEO7QS5MUX3ZO3S6NFR2BJ5DPHNBQHJKH",
          "privateKey": "4288F9F26D398C8BD95D75B003DF2849F1A968C9A5C7EF00F6B18695717C8627",
          "publicKey": "DC41997DB97D141B82DCEEAFA57BBF44CCE5DD106AFB6C933495D1A6F771733F"
        },
        "signers": [
          {
            "address": "WA4CHMZTIONLHE5G5FT7INOPYXKKZEP73D6SPB5Y",
            "privateKey": "8086424432CF58FF01330A0C126873CFA317B808674217C463AA9EA3A2640ED6",
            "publicKey": "C2E807F8C7160C7E36178447E18FDF0AA6C6C5CFC715AE6471F7509AAC5C0EAB"
          },
          {
            "address": "WA2536MMOQURIJIQKM54KT7GELPVRQ7XIK5GEWQN",
            "privateKey": "029AA2C05DBF1F31DDF2FEFD9C58FE84E31D83A2E8FEA76305A0DED16181DA15",
            "publicKey": "62FE63103C5A822AA4D801DDB04A2A3D61F5E6C44125181FC875A53FAC8F5602"
          }
        ]
      }
    }
  },
  "providerB": {
    "account": {
      "address": "WCN6HJYYOICQFHLM7CODCA6ELWFVJUBWACYXKQUF",
      "privateKey": "ACE068F9A8FB0010CC869F73717A21C3D8C3858E6E1E4801AA2762DF969A3393",
      "publicKey": "856A405DC32EB7FF0746850C561BB683743DCC6DB567070EEFCD48BE69957287"
    },
    "interimNodes": [
      {
        "address": "WBGR2B7HKDXQ4ONZ4QZTEYRJQ7NLFYM472FMK4PH",
        "privateKey": "8B0CDF2FB66C79D8034A09188750DC2057E81D686C5E3F166EDCE441182F4064",
        "publicKey": "97DF50B1A288D8CE2C5326BFA0BA1F6EF04E3E0708608E1835201B718E1CD8FB"
      },
      {
        "address": "WDKM2ET3AHXSPQUCTLSVSEN4FBU75FKRPUGOVXTI",
        "privateKey": "F7AD5FFDCE4555741E74CEEEC50ADE83B1B857E4BF2DF2BFD2CA0226B05CB5CD",
        "publicKey": "48753C8FC4CFAD17FEDCE2DF989FEC7125936DA5EDECAAD16495EDA8A3862BD4"
      },
      {
        "address": "WBGA22AYJMSK6SMJKUJH5GRVSVWSZQCSL2DCHGGO",
        "privateKey": "BE32BF977B97EB893601CC59534E87F2A228C1F64FC2F099D4BF129ABD808690",
        "publicKey": "EC536842D40F3DA6793E03D7FE53C369CB4EE8CDAF84FD93AB53405E253AEAE7"
      },
      {
        "address": "WADLIQLV6F573ZYR3462Q2Z2RR4AUTVIGXRHXEHE",
        "privateKey": "AB27EC56A674B8895249B1B7D7C9B60225BAA2DCE6AAE911906F547C027FB3C7",
        "publicKey": "1C9B6327AEDB6F22973920CE4CBB4F65A7E737AEBCEEA2549015E323D8A7691B"
      },
      {
        "address": "WAVANA27UWNXA3VEH2G3HS4LNYEWDQNLY6VQLI6W",
        "privateKey": "24BEE4348B417F4B70CA7741B1E25BE52122A69DF3EC5BEC302B36E11ED8ED09",
        "publicKey": "CA754950173A5D05CAEF26323D1569DD57225DB4DCF796FB6ADA2E5C30C9DD80"
      },
      {
        "address": "WDCA7FLA23W2YFEAXPXX7OPMHYE64IA3EPBSEUFM",
        "privateKey": "6D27E1943867E465AA7883488B726FB8088A6B06428A33B473B5CEF48E28F15F",
        "publicKey": "98EB4D555A1EF81B51E04497152BE858624600603128BE290364C82EFF4A5564"
      },
      {
        "address": "WCNDMU6IFMQMXNSPJSFDVGOACKQVKIXFPQ655OWO",
        "privateKey": "F2F08DEA294FD56A9B651D1E4C3F58206DB15CE70ED2091728504195C8B173DA",
        "publicKey": "96C63D1F698F42249C75574810AC321231E3BE0649685FF5ABED797A0A93198B"
      },
      {
        "address": "WAWDF2FD4BIT2VCS5VB6KEBSSXVR5MPK3URL5SPU",
        "privateKey": "E0C162558CC46972F36345EDC84DEA833D6624CFE6522F6B0ED0F242FA5ED7F2",
        "publicKey": "866AA1728E4BDE1D31577D610AE7FEADABE3692561171513AF1AD6C3F4B6A612"
      },
      {
        "address": "WARAJDNAHEJ7FKYNUWLFTBFQAIHF4SUWDRFIRX5W",
        "privateKey": "4DDDAF166490904E1FB630077F9D890119B9C3FF7D2B00CD0396A0F876161C0B",
        "publicKey": "1131E9485C9538CA9FD565F5C4CF50C17EAE904FE273C50D015CA7EE68E8484F"
      },
      {
        "address": "WC4NZZ7T2ACQRB5BRHT5R5DSTZPPUNEKSEIZJFSS",
        "privateKey": "D19CA9EB6AC8C030BF38EF55BA1EFF8CB5B137062423EF1AE51C579F7DD95926",
        "publicKey": "29C0F75E45DDC0C3D04EFEC6DBCD2DCFE14701BE3E141BB471314D0D7DDBDB7C"
      },
      {
        "address": "WC44DIHCHSBF7APPYENOMG646GKSCQQXWTC36OBU",
        "privateKey": "5FB841A4752CB17392C461A233A3DC3DF63478D5659345B120E8DC7CBF80EA94",
        "publicKey": "C2F33ED659FD1C227F8AA930C0BED55D477C1749C1C27EEF34FC680F9F65E3CE"
      },
      {
        "address": "WCJX264GEQP7X3YPVVH7Q7QWXAYMVRA4DXM57K3B",
        "privateKey": "952466B6B2B7F45E2F9AB3D4E77BF6D254D74191CD7B0F11BAA342187A6DA118",
        "publicKey": "FEE3EA0E4E788B7B1376461E6EAEDC8127C04E17270F7BB0C98F83A519D2D146"
      },
      {
        "address": "WB6664PCCSUPY5SHAG7RLKPW33KYFEHZDRMLVUF2",
        "privateKey": "0280AF2E165FB9CDF40706C906E4B7F79D587DF4B46A39EB8D4B1DF1CAD1DF01",
        "publicKey": "BE058BE2A7EAB0B7A08900A516344B7E2223305325DE861E97AD5FBCDCFFCB1C"
      },
      {
        "address": "WAD64EPCGG3H2AQ2QMWY32JPGHYRI5D4TXPG7STH",
        "privateKey": "06DD2FD7303F60199F4D7889C5261DB851A9C2FEAE7BE1DEB1E3C06A31914FD5",
        "publicKey": "830C759FCFBC75965435DD71EE674FEC517DF033B12EAC8548A419EEAECA2C90"
      },
      {
        "address": "WCZPEVPWNA5BX3NMZTFD6MPJLMHA3NENL5SEZBQ4",
        "privateKey": "46609C2476F84F260068CB876E9129125F6608511322C33F66814F264A369A9A",
        "publicKey": "0578397C7EF1ED45F8B868B8B6FA6EB17205B9878F763382472BEBCE1B5BE014"
      },
      {
        "address": "WAIEOMUHGRBGO5BYZ5P63PMWAPT4MXDIO7CTCCBC",
        "privateKey": "2F592497874F528B4B193CF9D6F3D4A8CB4484ADD55B5DF50EE045EB755F6BF3",
        "publicKey": "12FE12C405236EF9E017F0EF5CE4FEAC2AD746A4A672DD30EA5A3CA9043E30D8"
      },
      {
        "address": "WBL3PW3MSMBMPT3BNPZODXULMP6FGSLU47BBEF4L",
        "privateKey": "37F484EA176BA318104D6AE007FAD958F4AA325C5E2D44689FFE12A751188839",
        "publicKey": "DEC82EAE11159AF996D98480490DF7736253530D5136CD6065C9A6522F4C0AF9"
      },
      {
        "address": "WDBWZ6NJJKGNMHV4GMJ2D2EKC5MWQU7CLT7MDQKP",
        "privateKey": "8EC10383DCCDED4252A11B33F2488A850952986EB5BB519AE4F73D7B2F89223E",
        "publicKey": "4D9249EEB141B66CF0505FEFC21BCF4B4E2A28DF84A37FDE37EBD1FBE4DF0F10"
      },
      {
        "address": "WDQDNS2GALPQ26MVDVKKVYREQ3TOBR3LHT2TTMLP",
        "privateKey": "DC168FB91B2EEBBB2D1669DB51ACEE8EFC4606C19D31FF33E9C011A9E63DAD40",
        "publicKey": "0FAE14E09234A0720A28DB9D67E83F2AA9A6B474D80196783E5C9E2E28826504"
      },
      {
        "address": "WDA5ZJICOHLAPRODVPNHXAD2GEROER2M4YYFBTRA",
        "privateKey": "B830D930C99F297D619AE5F674118BBAFC6C065482BAD58D4F66103A963F9A43",
        "publicKey": "40893DC78619D667842D21D0ED54323351B06DD807AFC4A3E4470AB6357AFE7C"
      },
      {
        "address": "WDXDTUCUNEVTNK2HWLAOVAGIT2BLXVBAWYDBEE5T",
        "privateKey": "8C216C5C0937281C6A1740E247F28B5DFCA63D83504BE3BD336B748C466CB5C5",
        "publicKey": "8691149E3F4B6C2074058F029C7CDF21E75A6D00BEEEE3B4DC350BED76FEDF13"
      },
      {
        "address": "WBMHKQE3YO5ZQKU76LDW5VIMT44DZRQAPPWRQJZ7",
        "privateKey": "971E33A0AFD6832F0CD1D984E9C3E3C222BB810F4B448900B7E552CA55E562DD",
        "publicKey": "802308ACD0F9731FAD4DE341FE48CE904B1E771A167B44414962F59A292290BD"
      },
      {
        "address": "WAPSYT7PARC73PX7Y24CVQE7XTU2KWBT4UIDRZFN",
        "privateKey": "CA852AC90A3B6E6957A3A10C87942B61AAE5FEEADCFE886478ED82F07075854A",
        "publicKey": "896470405EB7DE908316CEE56317F422FD5B620B323145D00263EC400159FE26"
      },
      {
        "address": "WAUIWBLZCRDSMYJNHWQ4Z4KADOEH3ANPEWEUSKF2",
        "privateKey": "F0063262D9E9C9BD7984EC43714F5F1AE77F9CBFE49C09BDA6B068E64DDB6DA5",
        "publicKey": "4E209BB892D64CAF39435E5BE2D35B6A89E8E39CE84F5A849642849AD1C077D5"
      },
      {
        "address": "WANCY3URKTTSTQCSX2ZFJZYKA2CWHIIPESDR3SCW",
        "privateKey": "A4DB670E5C5CBBC3C658EF3A0047C2BB2DC4FB712D838FFD0144CFA8FD833F4A",
        "publicKey": "4C865BB129374C5A2A6ADA86F08F162759F4744AAD7BC10823664E94593C6CBD"
      },
      {
        "address": "WBTXBSKLTL6YX6OVW3MQQYVSCAI3BP3K66YDQC5O",
        "privateKey": "C1B6877148ED2942825110013085945458887A224B8E27E7D425B50A05B48344",
        "publicKey": "326994195E99795D6E8B80ED519C4B4708296B6AFF02E2138424C999CC2C1265"
      },
      {
        "address": "WBIMG7JVGU73QSBLJIJKPULLXUDYDJX6GJU6O5VS",
        "privateKey": "BE42B51145C20C5A7AB1DF9376F2BB8CACAF46E6354223B1EF5849CFD705318A",
        "publicKey": "3E0E117371F35BAA81B99E3F00B6BA14C6E61D0113FC1F7A94942A5C609D6098"
      },
      {
        "address": "WAMF7YTMKZGQA4XLXARK34MBA7IY5BKVIK5AYPYM",
        "privateKey": "9C5A60DF6D9FA1A87CFBA55D2B0B997706B6E7FE4CDB4B36F6752BDD0338B84A",
        "publicKey": "7B92AD59AD394EA3602FD5D69EF2BCEC3EAA769E2B7A7133634E3144F3DB236C"
      },
      {
        "address": "WAEUPR7ZCQ6APK7KMMGR6X4PCBT3RI2M42EPEEKR",
        "privateKey": "569DC45ACD6D754E46BA216C4BFAE1EA622D0B0B507DAB5615E5AC6D2E8DEF73",
        "publicKey": "5DA402A274AB94DCF41D71D334AB47A6C3710964B95DD485BD3FA7DD1D116B77"
      },
      {
        "address": "WCAJALRYJSCBNGWVL36VKEQLSIOMXGMZOEGVNRTT",
        "privateKey": "9ECC0A87FAB68CF91103536018B6959CD40BD568F76AD70B14D60CA89796F64C",
        "publicKey": "41C799584BF99FD0A4AA224AF613BEC1625EC70143B3D7D3762255409703BCB3"
      },
      {
        "address": "WB26QTJMVELNV4UAZNNQJOQGGTEVOEEOPBVVHHDN",
        "privateKey": "2FEEE24EF436A8D2EC17E5702E00133C17E2F8E23AA12F17F7A7252C83648A00",
        "publicKey": "3755A21F47E605458D81FDCF00DD2A29F9685062EA28392530F08F363AF1757B"
      },
      {
        "address": "WAPN2DINASPIHLW6I7GC6YIDHHEFW4IJL2ZK7BVN",
        "privateKey": "FB439C27BA1728CCB1E109A9CE6A0368A7F5D984002D6F41D7A432D91E5842B8",
        "publicKey": "ADF81E95620785630EA547ADFA1FFCB9DBD7658A8F7734FD41875F600E61E296"
      },
      {
        "address": "WAPITCFJFDDNZC6FSDAVXHBVRO32WRQGZGN3KJE3",
        "privateKey": "0C7B695D5717C80DF061DCB374936A0528FC7FBEC3D2180A09FA3146BBA5E3DD",
        "publicKey": "A6A900F578AE0D0315392BE1B923A3F099DBAB6279A93CC202C3421440A34371"
      },
      {
        "address": "WDP7DF4OA2NGUBJP4I2D5CTZ6L3N6HN34NBWWCOU",
        "privateKey": "E01FC67D2CDF9AB3994E2C2A19DE8CB8696AC7719D82AEF1AC0852E02B3E9962",
        "publicKey": "460B3D85E9035F884B5FE3F87051A3E367154EEF94A98B64FD30B418715D45A2"
      },
      {
        "address": "WA23PGEMNOTN4MJLVPXTH6CEMNNBNIMWNB7BB74F",
        "privateKey": "17C3D17CA175B54C29C08A1C26C5B258F81F118471A4A5F370255ECBBFD03876",
        "publicKey": "2228B8F35E80A7EE8E2FF2B1FBD4253D618F7C5A17F1BD2B6A5A91C01B124945"
      },
      {
        "address": "WAH323EQTPHAYWJWVI4FIKTFGBRIHZTWDLF5BGX3",
        "privateKey": "E522A99C59967C317EE49716C9A932CE2F7F98BF1EE1EABB2E04C7735E50D7FC",
        "publicKey": "F6B13AC6979D9A7BC4F59D5C44BE3578756E5608A98CDF1C7D98D8FBA9E14806"
      },
      {
        "address": "WC674EJ4LZLNYSOVUIVESV7QDMEAIDRAOKMN3XAR",
        "privateKey": "AA67C503D0579AB240E042D7E9F471656F35279ABE3264DF577CBC4159F2F35A",
        "publicKey": "7E4462E3B073DBE7A5FCD59ECB58DC30A507A3CC3FE927B7CFA21FFFFD940D1F"
      },
      {
        "address": "WDZDUDAYAN3IHVWBMDXTDJF7A7AZQEYWQAHYB7F5",
        "privateKey": "DEC0E96B380CD8E9A25B428BFFAA5A85567608D5657BB8AC39D3254361703DBF",
        "publicKey": "E3E3855F4D6922905C0FCB5334CDB2778C03A334D042F0266EBFB2B60A317FD9"
      },
      {
        "address": "WDA44NPPLLSS2VSM3DCFHYUDVCHXN6YXVOVYV4CO",
        "privateKey": "FDC07F80EB81A92AD4FA5461A6DA1AB2D1FDE8AE92522332888E783D67871B62",
        "publicKey": "D2C355B01DBCB270E39D1FAF3012C17A8EF99AADBAF983B10340644A1DFE3404"
      },
      {
        "address": "WAMGZSXU6SPFLN5G3PJRHRWMGZVBU3EKDTNT5DPP",
        "privateKey": "A1A06AF05511E2EF567B53A969A70A7DE6D4AEE1E94C8A7888316A7E95CA8C76",
        "publicKey": "116895677D7968CDBAC0718B8FCE38D1FE9A383947562079524390F28B9DB1BF"
      },
      {
        "address": "WBDFM6Y7OUKCLMMVVITVQX4QPLOMAL5OR7MDG6XR",
        "privateKey": "DBB78A7370EB98393FFE49E878F7989FB595D0E58438BE17081B46E5A51D8859",
        "publicKey": "B45D95E5ECBAF572394120F7BBEDC66167BF10C541144F5B13EE8E351C0E705F"
      },
      {
        "address": "WCQJU4PCESLFEZHX73NJKPDDGH6ZYFBTQ6W75RLT",
        "privateKey": "EBB16C1369BF2F76457D838F5B872E53186FE77DD2F01F343C5EAB35D0027B30",
        "publicKey": "6D1D0F84BE6F568CAA9D76AF90961322CBF335D73E7A7DCF19E9297D4707E273"
      },
      {
        "address": "WA2UU6I7BV5R7IUX6U6GQPOI75LRTPE2O2JUVOFN",
        "privateKey": "2766EAB048B2C312D7D5A39BE6A5A49C67790450D6C2CB6EDE12DBC71B6FD0F2",
        "publicKey": "FD8B76639EB959325F33F47E5868E4364AA95D53C238BB6A1430F3DA0A158DF8"
      },
      {
        "address": "WB3PENW5IOFLFFQO52UV3IOJYDZINEXBW6ZJDXSG",
        "privateKey": "4B1073CC53365383DE6917360E3E81298CD01E9F7DAFCD3F2C5C9B387E221340",
        "publicKey": "2DB58B002C43BD0251AA3C6D68FDD2778A8437B9983CA2FD77F246823DC2627D"
      },
      {
        "address": "WCGQUNSUGESESESWOWADWQ2CMH5HBYREKL4MHMV3",
        "privateKey": "4646CF814E64B60111D7A58913B54E482A87C34A13C1BDCE5444EB2AAD970917",
        "publicKey": "D33BDDD813C5040FD26E0AD9A47CA29C0EEAEA7EBE0B359C2F2055C84AFF8908"
      },
      {
        "address": "WACHBFXFCIUYTIE63CACNC6EKTPYTJ5T3AYPODPW",
        "privateKey": "0949031869B36255B94D9E8B635217DDF465379EEC700431FBD8D156185D0E28",
        "publicKey": "23B93A4F2AE6ECBC4E5BAF508F6D905C670D157564634FAD26D14448233D2832"
      },
      {
        "address": "WDHM2AOJT63KU7OFGS2OG55UYDGOGS2EBNHUZSS3",
        "privateKey": "C2C33A252D879B3AB98A53F047CA39CDC9FCE201E8564233511A470393270EC1",
        "publicKey": "97C3000702741C800067EE2810C2E7901C45BF6353A8A7403E889EB799A70228"
      },
      {
        "address": "WAXU5K56DN2NWJ6NPXL7B4XAGAXQ5LFZUB7CLTJS",
        "privateKey": "EB8FBA3C0135C2F390ACF35E1079B6A273BC9A75A40ECA24D587DA9F7F586AFE",
        "publicKey": "4144034985AA5806496D69F05932CC9D203F3CB25EF6511F475D4962CFF4F3A8"
      },
      {
        "address": "WBOMQSS3EDVIPVNG6J3V2KTW7MUUQOJPYJOVUZHP",
        "privateKey": "951F98D9D221B7BF5329170C66A6C4CD3500A0795B53893715C95F4F147B99DB",
        "publicKey": "20CE8D04043CDED17A80D1096897D59071A7468A836D7802C76B5EDF6110D017"
      },
      {
        "address": "WC2T7SV4GU3V2GQITYF75RESIZYZGBZ57GLD5AEG",
        "privateKey": "FEB7382EA395ADC6DDF0708BF5F0C028DBAF04413259AA486C33E004B86CF31F",
        "publicKey": "6DBD679AD1F4ABDA286C115A48FDE0EEA00740A744F28A05B20A1807FCCA21AD"
      },
      {
        "address": "WA4Q5CHGTAM4MRNCJVPRFUAMIUYUGR7TI5XLRTFV",
        "privateKey": "3148E41FD691D02381AE79AFC32782CC792A48A209EFF9882936337443FD1B84",
        "publicKey": "7AE750394A8544C3457D2606ED4AA1655F918D63A2226BBE6579AB4D86DD67A5"
      }
    ],
    "signerNodes": {
      "manager": {
        "account": {
          "address": "WBVHE5UWAJ7OTAYVM4EZCRWK6Z6FYPKFL3PMAKPY",
          "privateKey": "637D361C326195589B19C1827C45146CAB4A63B2B8027B2DAAE3BCBD6A9885BB",
          "publicKey": "749A4A6192A0F17174B8F6AF8F902D9A44AB9D7450EED8AA7BD2CE9D0B721231"
        },
        "signers": [
          {
            "address": "WDWZ2S7EIEX6HQ3242CPVMOWMAFZMBTF6CB5PITY",
            "privateKey": "BCFD9A13934E1F58F85E24A6C922512F7861FE53853E52D63C534EABED7D08B9",
            "publicKey": "AE4EF060459997D54F6E86470142EB0552814D3EF8298457CE7F2A6A47FB7F0A"
          },
          {
            "address": "WATJ5ZJEDFQFRFUI7XV2QPMUYKVO65HDI6YCLRT6",
            "privateKey": "2FB1FBD0E1F8E4EFA36E56BD7DEB1EB7EC01EF7932117191DC3160A6AADCA508",
            "publicKey": "541831B3F5D429EB90F2975DD56927E178B34C991E2C77352BC0EA164127494E"
          }
        ]
      },
      "staff": {
        "account": {
          "address": "WBQIVP42ZXZLM3COQ2W5HCDQ75MJROIFITHLMLP2",
          "privateKey": "272D20499E0AF5341E5F2AD6161ADA62822DDDA3CC7C06DF67E890434D7DC319",
          "publicKey": "725D1F4EE7E50FF8A98104F7AFFB28387A8D87FB6F6540FC1B982B737C6419B9"
        },
        "signers": [
          {
            "address": "WCSFVQ4PV46LPEWKF4QO624TBUYP6EKONVDMG4FL",
            "privateKey": "A2E14689B62B2FDE7EF34CB8BA8C86B71AD6C15F9D59E530613C5CA63E2F2828",
            "publicKey": "BEA1BE5B5631A104E52003AA8D76130F823E71551F56A60F8C0C689769F0401E"
          },
          {
            "address": "WBCEYK7JXK2PBGBS7YJZAEC6BFP2RDPWPZAVI6YR",
            "privateKey": "83837C815B4A746FB577707A3983FB88F9740FD985C6FA3F0F7460D32D0BD152",
            "publicKey": "AD508C616E371EAAB081349C1601753F34F5CAA5EE2A04449438E39694E82C28"
          },
          {
            "address": "WC2KFVXLSWE4NCHBHPFTUUU7XYK3DMHURBLXNP65",
            "privateKey": "4FCD4A0ACC36EC847998568F19B1E3E04C1C5CC67F6DA488CC1231FB9F181DF7",
            "publicKey": "B36ECBBDA1B34807FFBD16EC5F530CD9680D87855242E0289CCE7A6E394BC281"
          },
          {
            "address": "WDMQ4ERLPU5CNEX5HLGCEPAFAPUPTS6GRC6M6TAH",
            "privateKey": "1E13EA5EF312DC134AF9F90663B900AC9FD287FCE0AC247A9E2ECB6ADCA30125",
            "publicKey": "96C838ED606E581AC1188101DE134AB6C3F29CF87E6B474BE389025D181E25C1"
          },
          {
            "address": "WCAWN575NHPC6HHJAAWSI7ETF5MKSET3AZQ7EI3I",
            "privateKey": "1D21DC11B5941F8C9D40AF58E61C4B470ACE0CB30AC59AAB5644FA0DE10E5895",
            "publicKey": "DE9C184D7DFADA18DA97C92095D60896319087F44E2A0532F2C2E5B1EF2ACDA1"
          }
        ]
      }
    }
  },
  "wallets": [
    {
      "name": "wss",
      "walletSet": {
        "mainSigner": {
          "address": "WCDJEUR4PWVGFEYRFXH6NPSVYBXE6EUJVAHPYTFT",
          "privateKey": "BE029F8277E45B39358F87545C9E3913BA4CB27C686F43B9FEA39DA6D4190818",
          "publicKey": "FF411928851756E37E7E6DFA74312E8843E0212B4BD08FAF0AFF8C40923C0507"
        },
        "msu": {
          "address": "WALDZJFJHPZZ75B3D6ZSUI3TBXLQDDRKZRHY25YB",
          "privateKey": "CF505EC98E77A06BB3B2EA69AB9C6518154F32AB7052D191BF09799066740B7C",
          "publicKey": "61A0887D3CBA5225E705D6166196C3628CA6C33E6A86CB919C165CEA91A5A0E4"
        },
        "msx": {
          "address": "WCJYI2UQOAFUBOBOILIOD4XGLIBUKUSH2DK5NVFL",
          "privateKey": "3B7222301E8EB83A41947C51664CFFD750D79DBB038634A03E8D27DF62B9768C",
          "publicKey": "08E3251CA6AA2A77420648B7FF1CCB4951E730230D836CFD92EC73C66C5FDF93"
        }
      }
    },
    {
      "name": "fxx",
      "walletSet": {
        "mainSigner": {
          "address": "WCWFCI2NH56YJLS4AEQUNHSTZVUHYHSCIZQCG3HU",
          "privateKey": "D6F2D1F968B748BBA568B98FB070F5C06F649382FC7948507D405BE235AEE028",
          "publicKey": "B4B91B2396BB5ED7E3E809E6CF84F33FDB0DC842F7CA9E7641D84BAA490AD5C2"
        },
        "msu": {
          "address": "WBANJ5OMFLQ2ZTWCPI646DVRMH2W7XDINMFTS66R",
          "privateKey": "9E85DD0A882E916A2F7443CEC4B23DBDEED675299778AEDBFA2D0DE373EB275F",
          "publicKey": "F59BD3353C1DCECBAE7864E4B369B9AADA926DCD91F57BCBF99CAD2EC047D3A2"
        },
        "msx": {
          "address": "WDHAK5JCKCL5XJDN65G537ZA2BPWR6OE7CNSJSNL",
          "privateKey": "6BCC5AB94547EB4E710F4FEDAD35F403AFF3C45CF3A477BF100E5501143BAB35",
          "publicKey": "60B530D9DBCFD6F38B75EE2FA09F08CD03BDE841280BF1EC1F934D09BE0A33B4"
        }
      }
    },
    {
      "name": "escrow",
      "walletSet": {
        "mainSigner": {
          "address": "WDJYDS7ETGOBDNIUB46ATPBG2CVL6XXVYE3NVWNL",
          "privateKey": "77859E691000F1DDC8779B02BCF25B5C55FF4B8B329033F44C445849CE6A272D",
          "publicKey": "3456FBE28D0B6A76B8EC19F5F14594680DFB2FA2F7F330F24E209FA1B978BE06"
        },
        "msu": {
          "address": "WCLPXIVYAJJU2SCJZAXTW2LHSMKV7F77J3EHWVTY",
          "privateKey": "DAB28790D88EC39A8D8B86CFEBEF42A73657061E3F1F8A436671AEC9120E1E7C",
          "publicKey": "DA8321A7A7E10710432276851A1BEC8A089BD2C525C6F3DEFF0F4422E06050B0"
        },
        "msx": {
          "address": "WAKPFUJ6SXJSMATKBCLRWWC7JCQWVPBP5TQOXKKY",
          "privateKey": "9762A153C14DDEFADD0466B93C0E2A2E756B646647041A63815A024B826359D0",
          "publicKey": "DA726A923B59ADE2E765711FE41E72047126F28C956B2FFA678B4B2D8E001D62"
        }
      }
    }
  ]
}
