{
  "providerA": {
    "account": {
      "address": "WCYNJUNIx3NAAY5A3FSUA6T5NVVW26GIP5ZFMURRH",
      "privateKey": "9B7F826F89A5DE46E8E76AAFEA56E2A3933B2EBA79EE1655259035C0FAC197E8",
      "publicKey": "8D5C4958816EC8E781DFD3EAD10706AF36341B20955F7EDA453C0EC46401E562"
    },
    "interimNodes": [
      {
        "address": "WDOONPKGI65EF5CO2LBJJBM5XQXNHGBULJOSX7FK",
        "privateKey": "6C75CB9789A9BD712EE227AF630CD5913DD71C3B51A09FFE45B2BA19672E87BA",
        "publicKey": "70A2300B6C260518BAAEA860D1A062CD398474E498BDFE3ABFCED45F675960B3"
      },
      {
        "address": "WDGAANUJ5MJTE2IYFDI3AAB3EGNP7INU423OIMDU",
        "privateKey": "86767F3C3E4ADCA68B2C27480A6A1490E6313E8C20E64D6FCD0E3D050CED0336",
        "publicKey": "5D00857A878006ADF08EB452D86672DEDEF66C491B603C980FD5D1ADB160EACF"
      },
      {
        "address": "WCJK7J6OPEAJJVH3P5K3LJARU3L5BEPMP5Q3UOXW",
        "privateKey": "D8093D565D7A5982159056463BCDAA4863E4BCC7CE75EB796C6EC3F44FC1B32A",
        "publicKey": "0F192EC7DA5D2A385317F6271AC2785F11256B06753B2CCACE4A21067E920FAB"
      }
    ],
    "signerNodes": {
      "autoSign": {
        "account": {
          "address": "WAY75DYKLEIGAUIR4YPTQBXWFLP2YD74DLWG2TN6",
          "privateKey": "41F165000BFAE1BBF6270064575443175FDA1D56124F41DCA2E187B4FAB340C6",
          "publicKey": "80CBF7B2136FD4F95812439C5393E92E3E04EE2A00DB5ABA9A415C0C1BB6C436"
        },
        "signerParents": [
          {
            "account": {
              "address": "WANSEXRTNDXO67EEGHHC2XJD3QTD6OGQ4E4WBVEM",
              "privateKey": "03CC7F6B41F327DE1996C6EEB3EB6C890B62A259254C5BBDFC349175D9CF053D",
              "publicKey": "C932B5CD91E6DDDCD68389A4B38097DC7E6D0F17EC7A7731441DF71B5F5D0292"
            },
            "signers": [
              {
                "address": "WBJYTWYY2WASVQYXWLKJOLSCSPKUJQGG3UUHFF2T",
                "privateKey": "877E9B8B3F43E57E88588EB2DA79632DD4705C16909907C7EB422EA49D59925E",
                "publicKey": "E1EB0D83858E62B88805ADE93C6A32A0890B485A1E907A24D8337AC2659AD2EB"
              },
              {
                "address": "WBDMXZYM33Y6YBXMM7KAMV5BUOBCMHYHTGKUP4XA",
                "privateKey": "7937CEE833F9F1BD5BCF2AE971ECFA12498A61D31BD51EE96486C2EE297B2332",
                "publicKey": "DE430FDF6A660060183FF42ABA374F8840B37FE5733EE91812ADF7ED4EF275E1"
              }
            ]
          },
          {
            "account": {
              "address": "WCS6HQU6YKZ75EGBXEXB6N5UUZIQTCUUBO76RZ63",
              "privateKey": "40D7076885A19F64F4F925C2EBDD384A311BA269D20495C383CA65AB072A12A8",
              "publicKey": "1B33CFC323CD0CB5EEC19857677B866DF8A46F5106160D9C547045A42EC47043"
            },
            "signers": [
              {
                "address": "WARJZFVBCRKXYJNU63KDIKFAT74MW3YGOLRWLEOJ",
                "privateKey": "04441EA51566C38005AACE2E6F45F5C394985A69C379B3619A1337AF601BF07A",
                "publicKey": "5EE9C4C600B2911D25337D74CFC9D86400170CB890BD3A77784A3B9A68EF59C6"
              },
              {
                "address": "WCLRX5JQB4HFQY2R2JRO7CI7TKNJFCOFLUMSCQ2H",
                "privateKey": "65D9C7242DCC67139ED0F070841392C76E6E44E940BBF35AC6E73D861FC099D4",
                "publicKey": "B1E636937B5AA72E9340D8404FAAB55091ADDC878EA3B06FA3D2B02C668C624A"
              }
            ]
          }
        ]
      },
      "director": {
        "account": {
          "address": "WAOJOCKMMYVUAY5OPLVXQEJCMCK7NNKJKCZQNECF",
          "privateKey": "05E48AD285277CA0E71164E5A3F1151BDA61D323C89F82819B4EE7C72D192DF3",
          "publicKey": "ABD1E14C2F6004E6A7EAF18EF0C7F901D0FF9F6C95E9500EC94CE041FA1EF9A2"
        },
        "signers": [
          {
            "address": "WDUHCJGBWWZGADHVAUBE7KGPKNJRXKB5YFXP75YY",
            "privateKey": "D208FC75E95DE762B475D7ED28C67C4FB595CD662C76D259A3318A71C5499C79",
            "publicKey": "3D8296591B234719FD05219390A28F269921DF707BC675F97DB4984DBB1B798A"
          },
          {
            "address": "WANLWCMRSMCHVBEKYTVE6VGXIPCFY2Q7SC2II643",
            "privateKey": "25E8CC6A231CCDC7FBB2210CC53E9704A4B700B18097A8EA49C7019FF92B74FF",
            "publicKey": "98FF6A555EDBB9CB885811D0D9A7DF256DF9B07C338F2A3AD1AC738444730DA4"
          }
        ]
      }
    }
  },
  "providerB": {
    "account": {
      "address": "WBLMA3DYNDL3XVLXUPTL37B7KAGI2Q2KADVIHDEM",
      "privateKey": "F55F07EF4984CC3B2CEF68E274E7753DCBB3F8F94AFFD528E7DA3C4B2F60EAFA",
      "publicKey": "3FACB75FF717978BA12D9D5A241278DB9C8E0A3D184AA1869003EFDC46E94FA0"
    },
    "interimNodes": [
      {
        "address": "WBKYJL63O4TD36HF26Z7EKGM4PVEDYGBFXP6OX4D",
        "privateKey": "FBD6BE02F20531828DC4BAFB73C3D297F47E8D1669191DA3B3227E94FA8507FF",
        "publicKey": "FEC3A7158FD393F76ABA22C6BD6DFA194C70B7C4A2E9D5546108C8B6E3F15689"
      },
      {
        "address": "WCAQGHC37TKBGG5HJZQH3CTLUGUIKMLWXHO3DVL7",
        "privateKey": "EDE33737F46033F029F8DEB0BC425A3E3E2D4283C2C8CAC1163AE5D9D700465B",
        "publicKey": "14C0F00189E677AF1595796BBEDE2FA801AD86FE8385FB3EE40FE497BDFB2F75"
      },
      {
        "address": "WCCBTYURGIN25RQCWNJJ2H6JHCO3JGZ4AC3RIFDD",
        "privateKey": "37C0CB08083767C0675188935FAEE5E7789446FBD6B0003E0EEB3EC822AAFC62",
        "publicKey": "B2AAD866325501F6CE37D9AB1516B197C22965E4097E61E7907408FAA240BD35"
      }
    ],
    "signerNodes": {
      "manager": {
        "account": {
          "address": "WCPCB6EDP55ITAZ54OPRDJIKCRMFVAWB254QEX26",
          "privateKey": "972ACE1FD9F389C3E54AE9D4EB4BA5063ECE2773F661F720BAA26B8DC0D8261A",
          "publicKey": "DDA928B902CDE1D8E27836A142CDFCB005A373C8D0738435E10A9561EB97D1E7"
        },
        "signers": [
          {
            "address": "WBSSKWQKXN7333S6GTEJKM2AL62ZPF5NVWPSQILH",
            "privateKey": "A2D81A9A819459A841E85B49F072D1B8375EEB8850CDA4D15CB400E43CA358E2",
            "publicKey": "4C35AB18DAAB922DBCA5618193112946DB4691C94F3E8CE8E353273D36D4864A"
          },
          {
            "address": "WCAVATMIKFSIJHN7RLOBVXIEDW3CMMKBK4JV6BKF",
            "privateKey": "38B84C98A1A78D284A1F752B8757FDA0E59D4A5625E02956BFE61AFB2E0AE87D",
            "publicKey": "8E269E8D83DF930199ADA853E12FC56D4E3B8E89DA4D9F286CC7A63080A53C6B"
          }
        ]
      },
      "staff": {
        "account": {
          "address": "WAAATOSJ23KLHB5TI3GH3AALGRUK6RGPVCRBEV2A",
          "privateKey": "53A3FE12E26A7387999E11B3527AB5C3EBFDE004A38FCC77E979600E24478570",
          "publicKey": "FC5C6459624B1C22F9B0850A4B00EFC872A7B55F6F4CBC953183CB24EE30D8B4"
        },
        "signers": [
          {
            "address": "WDK7LYX2IGI63JPZ5T546BNXZ3NSLE2FNXPU2NRA",
            "privateKey": "B270421962E58641C3988305B43E44C120EF079691FE1ED1CC506605EC7C8547",
            "publicKey": "CAF87AF64417D1D3D5975D5066BAACE8741D90C903E75F8D8AA4DC44667AFDF8"
          },
          {
            "address": "WDK4Y2ZL7FLGNBG3HPMUMPLX5Y7IQRKBLCTGJFBH",
            "privateKey": "5A6567BC225F2CC1AE50A23E57365CC36B1255F915368F1A28808AC1A9A9225F",
            "publicKey": "0D5073D273195A7B7082604163567F805EC2C5893833DB73445D9BD9CC239890"
          },
          {
            "address": "WB3ZTPGPHNCHYRWT4ZTNW6NCSN7R7K6LKLDHD2YZ",
            "privateKey": "0F6DD38656375D54C0A398E147868726CCEEC358BA9C7667275C39AA7DEAF936",
            "publicKey": "AA158C0DE0AAF9DF18FD29B4FA77E7447DDBD7254F53A7FD2FE53406A04E2050"
          },
          {
            "address": "WDHUH2B2YYR7RPSNDGN33PNZQLBRBMPSZ5RATHCS",
            "privateKey": "902CAF511203841CE826D99BA0C698AC022E45BAFEC7C297B7D86857A24B7152",
            "publicKey": "0E670F6358954FB22284E25FA5D4B17C85FA691A1711BEB2D33013E941D2A6A2"
          },
          {
            "address": "WBVHAPRPJ5SG3EGNKJ4EFM7MT5BXDJ4FXU72OWCU",
            "privateKey": "2EC9F90E20AD66E0200FA8F7A55504C024F9CB7FA713BC1EA3164C03A3D52EA0",
            "publicKey": "1830FE5D3E720845463B33248A18C3BAC5554CF5EEA5567C279353FA47E580A4"
          }
        ]
      }
    }
  }
}
