{
    "providerA": {
        "account": {
            "address": "WDS7YJLD5ISWUVPVTKTP57VHZMIJR2RIFYXF5BBM",
            "publicKey": "655DDDFB729A2E064370626AFA62298CDDF132E4C036F30B9AB8005653AEFF24",
            "privateKey": "1A4E2469DD2195A64D57838528E0B2217374262B35A596A24A61B34A7A284077"
        },
        "interimNodes": [{
            "address": "WAY75VW6P5MLO3472FY3Y4I57JRAICCOGDIW3W6U",
            "publicKey": "92580839A3BABDCE8F8BA41C46D2E1E444A91939EDC0DEF4E9069B850A035070",
            "privateKey": "426F08D116200BCB6F0C898F2C779A884DEA616EDABDDBF9F5C63F7F885AF16D"
        }, {
            "address": "WC24X7E4HSDAHMTTNBQUOYHXNRA5A6U3KMKGA2VL",
            "publicKey": "8C6BC3334AAC9A79C7A3F2BF19962E51E8E02288F629CEEFB49902736C81EAFB",
            "privateKey": "D96CD6EB32C05B2972ECFE96A92B631D915F6101164308C01A16C645F7085440"
        }, {
            "address": "WBZPYFEOFLDG7WETQL2OIIAAKSREHMM6CYOWVLCW",
            "publicKey": "BABF538235AAF40B940D68BA5185AC46ECD181AE680EEFA12A1E9CBCFDA70FF6",
            "privateKey": "D7D011305B5758444972EB1B3C31ABA3F993470F3E9BA78877937D5A241B791D"
        }, {
            "address": "WALGRYIZTL2QWOM5NICWJ4CAOD5IU4NFKVWG322A",
            "publicKey": "C961907BB30909BAF9D232CEE91506AD66D257C17F77A5A395163EAFD1632B31",
            "privateKey": "07E686A18AC37B10FB7D453944B86EA21172543B6E82B1DA8A16C0AE2A073CF5"
        }, {
            "address": "WDBVEG3CBGJ422BNIPPIM6ZRD2G5RRVQ5LLVIBXK",
            "publicKey": "F2404D8A9F72EE523330B3358C3F0A780291E0FB29FAA9BAC75A450E646316FF",
            "privateKey": "6B71847A8C782355C03CDFD3FC0C47AF58EADD183737B46D5B9B8EC2E07F3C6D"
        }, {
            "address": "WDGX4QZTXIEARJ4GBLDWIZIIR7N4UJ7DIU7GK6RN",
            "publicKey": "2930E445A097B4CC9A5A265C53B61A7EDBAA56AA01282E3803F8D5CACAB0F101",
            "privateKey": "6D61665D66E924FDA94DD9151DABB405E8D0DD923ABA1E75D06C7D0E56963629"
        }, {
            "address": "WBXFRSQSZCKZJEPZKSFIUPVQYIYZENQ2DF2SXYQX",
            "publicKey": "B96BB2146E25CEAAA2DF2D7AB6E740D370EA1494B2AF15C9585AD479B64D194F",
            "privateKey": "4C45F90ACFEC312459B94B574A8A321AA1181260ACFA101C330E679B702B2397"
        }, {
            "address": "WBX3PHASO7RP2AQIWBEKX3AUNFGQMNWOKPIMKS3X",
            "publicKey": "56275CCFEAF8F72D39AE9691992807087FFCE0AAC7D0B715C1243A6F459CE6A3",
            "privateKey": "57FEBEE6D5BF865923C3A2194DD19DA28DF05CC05F00666FE9BD1C937D2F2E49"
        }, {
            "address": "WCTOZ64OHQLUUFFIF2O5CBM2OWQW4U6X6UID4NHA",
            "publicKey": "8E645263F3CA3A2D7721D827A0BE2214A736A91BB7D373E1F83DDCF3576C9128",
            "privateKey": "F05FEE5DC751E36B3252AB20E08D6C8381E2C0D4862BBE1859EDFE73440F8F63"
        }, {
            "address": "WDJZZ676YXJ742QKRRU22BIZAG2QZ2MMQDPFTHW6",
            "publicKey": "8EAEE06BEA4BE7F8FF60E8C6C72C5A0AEABE87D126D21DC3EE2FD00AFEF9D87B",
            "privateKey": "09F44915D6C45405CCB8E2884400348E961B012A2791BFFC50D56B0F1487FA06"
        }, {
            "address": "WDQHEU33U66GCBQ5UM5OBIPBVXKKI5JRAVY7ECA7",
            "publicKey": "85E98CDCCA55BB67C7D8067A7B34C9223C56928AFF099B160F25C629C18E60BA",
            "privateKey": "776A0016448C339EA7CBC7A15A9DFF5BC9D44DBE80AEBB4BC0E69D4012BD172D"
        }],
        "signerNodes": {
            "autoSign": {
                "account": {
                    "address": "WAHYFZ5YQXTKRUZ5W75A65D2SBXYHB7SBAKWVME6",
                    "publicKey": "3A7F8C25B6929D9B2844D679A92E9457EBAC4F381CD9CEEEBD336A8042EB68FD",
                    "privateKey": "94C45E107DE00489BBED341EED0C428CD7393A27EF904823D1424C58E62A1DAE"
                },
                "signerParents": [{
                    "account": {
                        "address": "WA4OXDTZADRZ2MCUMFF6MDO3JIXLUWHG6N3LZLT6",
                        "publicKey": "CC15FE8A4BCED0A7C0E73FF7C9386326A29269031B8A2EEEE4C783B56A33025B",
                        "privateKey": "FE346A52AEC6FB3161FD5F13E0D43C7D706C24BB6447AEE5C6A879372BEE57CA"
                    },
                    "signers": [{
                        "address": "WBGN4RJU7JYB2DWRGRQNCFRUFGB75B3LBJQMQO5A",
                        "publicKey": "DC3FA4B5CFE731961A94631B38AE3FA55697FA6D616C009EAB9DEAEC43A178C7",
                        "privateKey": "E11E637D22B7C4B8939183AF9C7AEC99FBA049BBD37147270B5036AED2496254"
                    }, {
                        "address": "WCIAOC4SY5LB7NSTKESWFHOYSGMO26X6V2CPH44H",
                        "publicKey": "3C855CBF54A204631E4E786288AE726BA5829EDE45B34044339779C47DE14771",
                        "privateKey": "A67E8A4461D3A2D812B3B5EBE5190C581546B9E77564663A5A1F7006EFB31EEB"
                    }]
                }, {
                    "account": {
                        "address": "WA7FHVORI4MAREZV3YTXYHJJPOFOW65DXBYTWDN2",
                        "publicKey": "9A45517044F260A4A4A5A7294910B6F034A60C1614B4A9D6C6CF3AD069D062C9",
                        "privateKey": "D580F37A074648DA42F8B6A1B54F0CB254518724462695683964F7724D298AB0"
                    },
                    "signers": [{
                        "address": "WCIXLE2ZHKCYMKRYQXBUXNMKAWEGJFYRPDNYHEXQ",
                        "publicKey": "2A37EDF6F7B0791A36AD89311812B711D12F18F97712CAEBEE700A20BECC5066",
                        "privateKey": "177295C2401800666EB817F08F6CC40DADBA9BF6DAEEE2DFEA897C0D64F56901"
                    }, {
                        "address": "WBGOP34KBQNAQZSCKK7HGU757OBJ6ZQVDRPTEQBY",
                        "publicKey": "CDA32B9FD635F857F44B1DBF97B62B14A1A8D62D049EDADE02C9758FB08E761A",
                        "privateKey": "1DA8C4413E74989FA292DDD0458597AD12885C0F38DCBCDDC34C2A07C40BC78F"
                    }]
                }]
            },
            "director": {
                "account": {
                    "address": "WCFCUS2BSYEGMQUGDTITMGWAQDT5QIVHWBK3J3JX",
                    "publicKey": "BFC9D088F35C1D9927BF83F005443E314F1AC71527FF9DA1975140EC25156916",
                    "privateKey": "E35792CEA6CC374A3675A1CAE8C1779671BFD921E3A274669652A659D81D748B"
                },
                "signers": [{
                    "address": "WBILBTJHCKUJOEYP3HQTESCVDHFWE55YY64RAFRE",
                    "publicKey": "366890FD2E583479B2B18095A4E47A13C87FFA2E67B739791A3AF3FF3FE7D899",
                    "privateKey": "25574A5951308DD45C3F7CD514EC9AF36235DE54A0879C66DEA62E2DBCA5203E"
                }, {
                    "address": "WAP475X4TKMO3FH5VRX3SKDJ5LZNXASNP5D4CK2M",
                    "publicKey": "5F4048D452AF3837E5294921A00AD43268985F851219422876048ACF82D22AD4",
                    "privateKey": "82B4EE43F1460E4C3B4C0B05CE642E660E67C5E0B57C16C061804CA38EF51D65"
                }]
            }
        }
    },
    "providerB": {
        "account": {
            "address": "WAIBVPBRASQDQTV5DLES6G7BPKIPV4ORODCJX6K6",
            "publicKey": "D1B36196CAEFB6D347DE7A3EB91B2880B63ACD88940666F4EA1676CF785DB86C",
            "privateKey": "AF79B55FADE4E6C69990B30B1B2707E421ABB4DB32385B0A5D61ACD392CD59B2"
        },
        "interimNodes": [{
            "address": "WBHZW63EOICPGBD2VZGHB6CKX6A7US3GQVFP7Y6I",
            "publicKey": "92EA2F16E8FEE353C06677C2CA0D3A18C81453550BB5887019604BF3F6CF27DC",
            "privateKey": "F348781004982DB4D2AFAB39E8FAEED030F49159BD02EF6F556009260EEAB85A"
        }, {
            "address": "WBAQSIWFFEQAV7UVHD36OX2JRC2KQWDNMEM5553O",
            "publicKey": "C1FBB332D2EC31F46FB24319B85214A0AF813DEE3E258E5F31DACA2349EFC8C1",
            "privateKey": "402AC1E974F927999044B0599F08DD077DA53095CBCFE9F9FE1AA04D53EB86D0"
        }, {
            "address": "WBJYPUDNLEXOM4BUQ6X2RSF2JA7PGSLZI2AW7HSO",
            "publicKey": "DC319D1C64C92C14BBA9E964D1D422FCFAB30BFE58557774E5AF2E1A3D64F3F5",
            "privateKey": "586319A073780B82C38D37D121067AD530599343FDE0884287818DFEA87E1E39"
        }, {
            "address": "WBGSM27A5RGSSHEUHUKMNUBQBYFQ7MMZ26XMW6O2",
            "publicKey": "152638CB7791FDC1ADE7F393F957577B9DBAF75F3EAF0FB1D82AC95FBD6BA954",
            "privateKey": "039B02C00B20E2B0ED39DBDA23019CD1C7C32A0AE9624AA8438E019B45F8BF1C"
        }, {
            "address": "WA4IQXUKJMRG76HPCGQ2PW3GIUTUZZTXM6JK3JQI",
            "publicKey": "8B9D87D44E416D1EBAF8BA33111EC914266D7B116407A1CCE7CC8A5D2AA6636A",
            "privateKey": "9C8FFCE378AD21D77A12DA2783751CD19AFCA0F56A211676B7098E023473C955"
        }, {
            "address": "WBLHSA3GVSX56DVUHQIIJX2AE22P4KU6NETTRXK7",
            "publicKey": "659DB4BE80086D8249DDE08C73B894A689F6899D4539A481C01058F8A3BD897E",
            "privateKey": "413E4D8FFAC0A910CDBE6CD8A176269A3EEA4C8927830CD80B26189314192205"
        }, {
            "address": "WBK5DD2QRFMISYWFU3JOVXFICN4GB6YZM2LMISL7",
            "publicKey": "3A0EB12BFC8E0994CBB2ED570795D77BA28904754F9A827EE1A3B96E84861C5B",
            "privateKey": "2D24CF036E654C0DABA63A48A224312C7C4E199EEEC27AF60AE62A249F75B4E7"
        }, {
            "address": "WAHRT3KA4ZTO5Y6SAUIA44KPFOJSDWWXQFFEV27V",
            "publicKey": "ED6810920DFE7D97DBCB33237D32B30B8F96A9EBBBF2D21A788C185B4C6873BB",
            "privateKey": "8D243501CFEB7B4D81BFA1592A361CA21634301CE459A2258011CB666B1AC93A"
        }, {
            "address": "WDOBJJFTFABUAOQE3ZP5MTXQQSTYWWXKVEZ3DL76",
            "publicKey": "9D311F97D69754A7CC7E0E2C17F897BBB48E9BC03E06246E3B3DE21CA8CEEAC0",
            "privateKey": "6110C93E24F71856CA76422E1B6C8DDD7D2A5A7D357BE8C6C9B3CE11679AB593"
        }, {
            "address": "WCMMUUNNSFJWNJHRJ7WSNO5PMNYLT472B4MSENHL",
            "publicKey": "13669D2503D7F26977FCB680B63265800057958B9B28B2075C1F158C1B03F882",
            "privateKey": "C473369887BFBAC5CD16BBDDA3D2F5DEA25C27D5C727BF385569418ADCA1AF63"
        }, {
            "address": "WCNAMSRYBP3OBDW5GCUI3AJQT5GV4C6OLH3UBKR2",
            "publicKey": "4A13D2E174184A2CE5C2DE36D641A11CD9E9ABBAFAE12EDCE230A1B309D2F7F1",
            "privateKey": "79367EF11DFEB99BA2E474ACC0675439D2669ED8747977DAF30B46C0FE795337"
        }],
        "signerNodes": {
            "manager": {
                "account": {
                    "address": "WAJP6Y6ISVBBEPFPQJJUCEYMOWWPPBUALLXHQMUC",
                    "publicKey": "B3333BF3A0B1F4CC4BB3A6AF28B80C9401258ABBA7D6723666E3537EB11B42B1",
                    "privateKey": "9AE16E71920C54DD1FC2D7549F0AA0659B94241FF9E721EAED8CD507C04BACF4"
                },
                "signers": [{
                    "address": "WDWAJPUT7XTMHLH47P5GBVM6V5H6SDLHD35EAE5J",
                    "publicKey": "3D60B2142D536CB16F9EF384546195820C9B48E72579B46F2AD54C480D7AAB44",
                    "privateKey": "909BB7CFF23D764E4B4C49D68C5728688F0D6CF9F062404B2CB2F1CF62C46403"
                }, {
                    "address": "WDXE7GQLFXX7X4ENBKLYM5QXPS3FCECNZFTUWGBD",
                    "publicKey": "FE1F3539427601967A5A29918C0B0B70A40E4D7F90491CBFC6124F21EEAEEA88",
                    "privateKey": "36AEB9C79DAB6BB60C849253321A34A2D06498A3705B735CFA9D585B88D3580A"
                }]
            },
            "staff": {
                "account": {
                    "address": "WA2GHGBW55M4DJXP3TOV6ICT5SMNF5DINCMY7KLE",
                    "publicKey": "B465EF81E09D7FEBED92395D913D5EDF509A2B60883DC79546B606D35E250025",
                    "privateKey": "BA52D99DECA18FB922539A4255D81C779CD9B4D377426C6A7B0465C2E3DECB00"
                },
                "signers": [{
                    "address": "WDFX7XC53AQCWWOGO4B2EBYWVU46DUSWGXWH4ICM",
                    "publicKey": "E9444338259D3C16DB580AC405DFFE17306ACC23922B6FD11B1C47A81ED4122B",
                    "privateKey": "EBDB5DF448F9479EFD2737712E5BEA3D5A67FD0ED4C78E82292D4547E2C9E517"
                }, {
                    "address": "WDPA3QC46FL5MR6I35R7F2U3LP6TPYOLFKMPO45V",
                    "publicKey": "12EA668C7BE1F9163FDFB0467B042F3C2BA4A64826BFCF9A8CD91FECB7E77556",
                    "privateKey": "A66BD7B92ADFF4A241606CA34DB4B17F462B83315CB4482A4124442471F62128"
                }, {
                    "address": "WDF5TDM2QIYSIHNFIQTTA3PRWZ3U5FWNL6MXWA56",
                    "publicKey": "B398AC4F0B2D8B6E14EF98C23DC2B27745100E0212AE1AD1BB1D88F517AFD709",
                    "privateKey": "6BE4B70AA1F8B65830FCB2168159AA212A629B716FED83C9C8D8D9DBC2A90757"
                }, {
                    "address": "WDJIF5GQXKVACIYWE5HKE6TFOTPVW64ULOZB456S",
                    "publicKey": "A8974F92EA7871AC44C77DFE5700198ABF55EB8282FE00BDCFE5B3A01739378B",
                    "privateKey": "7C6EF143159B3F9F1C9E67FFC34F6F99CE74AA9A2E8EAC6FEA71FF587EE8CDD8"
                }, {
                    "address": "WCASXFU33Q2JWXYPRWWZT5NJEURJQ6HNDXMSDRSX",
                    "publicKey": "5AA31C9B66EFD198404FE25B36F4C538D94DEF140714BED45FC0BFAE61DF5073",
                    "privateKey": "977870F0EEA031443E1A9E8BC30FC162012E7DEC385B975AED48B4C007DEC4E8"
                }]
            }
        }
    },
    "wallets": [{
        "name": "fxx",
        "walletSet": {
            "mainSigner": {
                "address": "WAVXA2CBMOGVNGO7EXIVRFK4F6J2QPJUP6EF33LM",
                "publicKey": "D6A8AA7158080EFA75265623220F9F36B5FA9EE2ABCD4184C0F72CEE2BF022B1",
                "privateKey": "DB4CEC65B4F97D19FFBF60955BFEF3695DA7E3967708FCA7904F59FB4ED583AB"
            },
            "msu": {
                "address": "WCKL6NCDWTVQRYL2HSPKGKRGIRKTOFWZPLQA7VIC",
                "publicKey": "75FBAC29E15770B707106348A2E921873CB33D813189A99FEF9857B964818A96",
                "privateKey": "5D106A47451D9820B361E78CE12FA0415BA0978C5C8847F4DA03A2B558EAF8C9"
            },
            "msx": {
                "address": "WCD3Q3DEFCRMN7UJ4HUI2GD6UNOH4YFIO3N5LLQT",
                "publicKey": "196CF7879B5B2E22D2D0BF34A77A21293802301F064E5EEA077C4A427206B163",
                "privateKey": "D62F550F3ABC96F31E4AD523E28C0CB40A068E7DDB3B9FCE4223416A2473C87F"
            }
        }
    }, {
        "name": "escrow",
        "walletSet": {
            "mainSigner": {
                "address": "WDZHKKM7PQ23CFONWKBDKVO62D2M6NFTUYW7MLYG",
                "publicKey": "E981A6D680BA3C480C704F465D8F29E6AE9644366E818E7846F53D88B45482EB",
                "privateKey": "75B73D3642124AA4D7F6323AA841F679EDC62C750024CB7C8FA34CAD5783074B"
            },
            "msu": {
                "address": "WBG2N4SVZQ4CTHS2OSBDR3SQZTLMJ23YKLJ45EBC",
                "publicKey": "744C22E9B8F905D53D1FFEDDAF956A65F18F37C213AA990160FDA134995ED7CB",
                "privateKey": "927EA302868261A7B0014BE1539D385D98F91576FD0C1C36170C5FC6F600148A"
            },
            "msx": {
                "address": "WAARTQ25H6MR3T4OMGWV6NJRU77KTZKFEFCTXPMN",
                "publicKey": "5B938DB7419BFD1B67DB5A5B1B2B9E1BCD2A82E4609090A6CA28840A7E479922",
                "privateKey": "126D3B6241EEF6427D5526B396EDF7F38CB6D4FC352350B7A92C649FF680BEFD"
            }
        }
    }, {
        "name": "exchange",
        "walletSet": {
            "mainSigner": {
                "address": "WCGMRKWTJVT6Y7A5LEKI6FHVX55EEYSJOXW3HYUS",
                "publicKey": "280CC097C1649C2DF7F8ED3017BC91717829BB55681288CED043A2859CF9F1EE",
                "privateKey": "D1F28A9961E7CA0A20D643DDF3A07BCB7340E55E1328315238BC5636E91ACC8C"
            },
            "msu": {
                "address": "WBUAJAZUOVRYOHU6PGF3KYW6TNDVORTDQU24ZLC2",
                "publicKey": "54307EB97BAE7421FACC1ACB0870D834A060A19CE2F4FDDCFCC4C2949A730123",
                "privateKey": "9DD3505179BB496D45C482306A9E334FBB44B1D91310FD3F3CAA3C018C5BCA20"
            },
            "msx": {
                "address": "WDEYZFPH7H6E2QVPRE7KMQ32RKRRIEYQ4RZQKNR5",
                "publicKey": "07338334499FB76AC216EFF7192656A68686D469E973747838878CC727DC431E",
                "privateKey": "CFA68FCD2FDEF9742E6C7FBF1F86AD5CF54E5A9BD46B73B2D8ADA791B1F8434F"
            }
        }
    }, {
        "name": "mgm",
        "walletSet": {
            "mainSigner": {
                "address": "WCSKHFD332LIRMVVO374I3SGSQCN4TRZMR3YHYWG",
                "publicKey": "D380EC87C1C2C0B1212E64B4CA08357C75CD8799FA357A5405A0B50F97D0C81A",
                "privateKey": "69688A00D061C6E55259BA88599DA9390EB8FC88F5FE98D7D7C8D06373D9B1DE"
            },
            "msu": {
                "address": "WDW2HG4T2ZI2UGLFWXAR32TRJNNFYWFGBFNO56N5",
                "publicKey": "EC088ECE52857B332BDDABB5DB71D5E0077C0999827FA38101635C5243D7FD04",
                "privateKey": "884BFD1754376816F9F1B9544BBDE03210000203E18AC36CB9546F45DE503D50"
            },
            "msx": {
                "address": "WABOTPXWUIBFUESQAO6KYHW6VRQP5JHALHILGRZL",
                "publicKey": "00D650ED1F027EDC5C688D5867185C66D3227643181BEA2905D904767F11AAB7",
                "privateKey": "CA3D9E361A0E29D59683296F765208EB9A0E100CECE3B38614EA09DD8ADB39A6"
            }
        }
    }, {
        "name": "smart",
        "walletSet": {
            "mainSigner": {
                "address": "WDSK4PLKMGWKHWIR677V6AYKYQC7AMIOLUIEFIRW",
                "publicKey": "99CBA25DA602A81984268C98EA3DCC3EEF120B709EE9D6AF530EE835C4C6C986",
                "privateKey": "438C638B58390810996CF22AB509AA68B0C44F5CF81C86133776314C55254BF8"
            },
            "msu": {
                "address": "WCOQMGQSPIYZSBEV7MKFJC2JVL477D6G6WW2BENC",
                "publicKey": "49965AC742EA04F6415FAC68294C69B3A8E44B4862F50F7E8C5FD9B5C9B3FB96",
                "privateKey": "1147826B8744BEA908B6DA921052EF8D04A7033295A71D11FCB200A850CACDF9"
            },
            "msx": {
                "address": "WDW4ML5RTG3CIQXB6DLOPWQDUAEJDY6YSK3SVBXN",
                "publicKey": "6E3CCABEA8AC39645C0B100F213CDC3E077A6310DE68FEE03A4DD72B5B977ACF",
                "privateKey": "FE55A12CD0BD6019BD026D6355C05173286843511B163742CCEAB18034F036FE"
            }
        }
    }, {
        "name": "paygo",
        "walletSet": {
            "mainSigner": {
                "address": "WC32WQWY3MLRNGES5WY2XFMJ22LXL2F5YSS5VIIL",
                "publicKey": "325D45390F6609DE23ECC8BED4AB999EE7062E19C6C0D13EA001CB53183CB2BD",
                "privateKey": "A4486E213260BB04E42D671D9A2F98AAE6BAAC10D9818266C71AEBB14C965AF9"
            },
            "msu": {
                "address": "WA7KHEDB2D35BPZGTVEBDZHZSV56WXOG3JFM4RYY",
                "publicKey": "16D94AD2F0BE5CD2ACF0AF3359115AE2269DE3915216EA0F46CC6601F5247A41",
                "privateKey": "68C5DA58715DCCFADD4424D6D19FF4AA9D58FA12FB74CEAACFE39DF7EFC1B9F0"
            },
            "msx": {
                "address": "WD3KUEEQNQQSJX256YRG52A6XFKI54Z64YAUHM56",
                "publicKey": "C37ABE4A91353C5533AB28F92B027AB792EE53CD500FBC1B8D9C84A6F43A43A3",
                "privateKey": "1D5AAE150E13691157698575C46AB614EC5278596CC399AAE593570AD3A07A24"
            }
        }
    }, {
        "name": "emoney",
        "walletSet": {
            "mainSigner": {
                "address": "WDCCDF2IMJU5RD3FNH6KDKXGEU7MP5FYIBB7SRRW",
                "publicKey": "3685FC04B93995B159895146AB754F603D22FCE40075AB07AD3A357557AC992A",
                "privateKey": "B09A282E2EB161F82C3023BF76172224FD5AD6B657A0641D43F8841B76026CEA"
            },
            "msu": {
                "address": "WCAV44NTPWWFCDS224ALDVLHNQBLT5MT63BUGYHH",
                "publicKey": "07928F79C031C3DAB903F53A44C3FC5BC22CC99CECAB28D218DBA8E6372BEED1",
                "privateKey": "C199266E70CB4DB7F8D7FF9FF823314EA833D94967C54006B16DB3661D63BBF6"
            },
            "msx": {
                "address": "WBEVZSGE3TG3HHWHVX7JGQOIRVKJYEFVENSX6GO4",
                "publicKey": "6AEEEAE18FC0850BA8506E2B54E0FD3B5F4F90121468B25F05BA67C730B3FF3A",
                "privateKey": "089A5E88701CE207B0895ADB722E972F9025CB5D26BAEB5A832A1EB9E465B9AF"
            }
        }
    }, {
        "name": "speedpay",
        "walletSet": {
            "mainSigner": {
                "address": "WA7AOR5Q3V5JNA2MQ6LXJV3QFPJH744U3ZXWJDPS",
                "publicKey": "F52D92F6B1E245681275DFE416C8656912D3546C6FBFB5266EACEFC18792FB24",
                "privateKey": "EB8809A60FAFD860D1FD16AFF38987B5F25F37A83BA8CB07221E4871EA71BDCB"
            },
            "msu": {
                "address": "WCK5FVU44FGBVDYUBA6RWVLRYCBPI5CWVUVWDO4J",
                "publicKey": "7D59137F1E7940C3A356B6CBBA1CB4B3EEFEF3629499110B08035F822D4DCCF7",
                "privateKey": "86E562B9DA52D08BC6EFC9DA15129D046B2EB28C30C384DCC4392DAD7E6EDFB8"
            },
            "msx": {
                "address": "WBWK3D3UBXEM34ZBS33SNFNNMXE4J76OAZ64VG64",
                "publicKey": "4BDE1072162C3CA067964728A2787DA66F796EF79E3B25F1A8DCF65187AF1A94",
                "privateKey": "C46EECFA37F5733521CA8BB4C77CE6CECF08993D147AB3BE7A097962D8D351ED"
            }
        }
    }, {
        "name": "bakong",
        "walletSet": {
            "mainSigner": {
                "address": "WDPWTUCDJ3YUV2P36SE52CB4SN7FUVHDVBMBSZ5S",
                "publicKey": "9566A6B55EFE50A7230507DB9FFA3080AF3C39A8AF450D78988E81CFA6C5074C",
                "privateKey": "AD1433E0E813D3FA11241EF7B51525DF8CC81736B66BEEC96F8A1E4EE1B25CBB"
            },
            "msu": {
                "address": "WD3S2MDWVRQLQVLLTVMKXEUAXYFKVNA7DI4PNUYG",
                "publicKey": "B899A4B10B28B774B336165F3065451700134BF385FD6832D8970EBF5A4687FE",
                "privateKey": "C02E97ECF309AE79F64F31F6583B87BDD4129EF68114ED86270E5F3EB8093A02"
            },
            "msx": {
                "address": "WC3QEJEN335D7QOZRMIVLQRM6ANNZBTY2XHKYKKE",
                "publicKey": "BB176E45F6B053807715131C2EF2470F9C4BFB50A0C244B73D21DE8F56A7093D",
                "privateKey": "A308735FFC4F1FE530745A1586756E2CB79DE79E387B8B91D742430E38422B85"
            }
        }
    }, {
        "name": "ipay88",
        "walletSet": {
            "mainSigner": {
                "address": "WAGOM6YMCMQIU5M4V5K7YXUTRNQFZ5QWSDRKUGBC",
                "publicKey": "E0EF48C913FCD4988962C020518D22A286A5321540863111614C896D8073B337",
                "privateKey": "AC0D58386F3FE563D23986A0504F8642F0B3F0D763E876D8D989613BF854D25C"
            },
            "msu": {
                "address": "WBVPPJ6JUYUW4VSTBIXWAPG7T26SIVUBSKVKNJYZ",
                "publicKey": "1C9ECA684C2F62BBFF22D44003F6F98697D2E8EB99F266D56635FFAF4EAD4EB9",
                "privateKey": "BDB4EE5D808ED2463F551163E3369BADEF3EAC018483620AFC7D3438711BF71D"
            },
            "msx": {
                "address": "WDKGY6RSFADFBLPLVEKPLTEIOE6C3OHDHUACEGMM",
                "publicKey": "B5311506928BD1EB5BB1D432F28726A0666A67B7EBB673BD7D42050729411BBE",
                "privateKey": "8E9FDE0AF79B225CA13ABA1CD5F4124B1D2008B288B34D1891544DEC8C9B53BA"
            }
        }
    }],
    "metaDataWallets": {
        "signers": [{
            "address": "WDIQBKNWGV62SHG7GJ3DKEXK2646WWY7DTIMV5OE",
            "publicKey": "5585F832E9A2AF970865B49BEB1327C9981FD0A2FB22BA5229CE73BCC3980F4E",
            "privateKey": "07B2F5515D2936CF9A1C4EF205B197D323DF9AEA81F727C20A3F1DF282A30FF6"
        }, {
            "address": "WBEYYXR736S4JE7EKLIERYFGH35XDREA222OWJ4I",
            "publicKey": "6376610E754CD1D783AF89E77A62D4D6BB3BCC23B17E37F426AE239AED4B162E",
            "privateKey": "09E17984DC49FC4D85EBFFE6C18885A5E17588B45FC2F0E02DBE3C77E45668DE"
        }, {
            "address": "WDWQJVSEKMR5TENCMAYWFNFPERPQIKS7TVVJXFB7",
            "publicKey": "687B0484F4650D38066C124F9D876C0B17AEAD3713F80B8C0FCD3887EB689866",
            "privateKey": "6C261E5ED4F56F5FB61AB030F92D8427807F9BC51BF30C8E0B034A4EA8CA7A80"
        }, {
            "address": "WD5AM6DYOURIC74K2RA56I4BSGET7IBAWWI7K6V4",
            "publicKey": "5208CAD23E5655550492E0398FC8DDF27EFD31D7A7FEADE9846546D8B7270E63",
            "privateKey": "7563E363EC48A0935624753CE7268F52810C761633D9E8E66C23C7232DCA0C94"
        }, {
            "address": "WBZED4AKFVSYPWUTWLXTLJICFKRV4J4PVR6HDVHD",
            "publicKey": "909D184C660D44B239626A797EA0EDA67AE52C23468E914DA9EBB9719BEDABBF",
            "privateKey": "78A6A492F20C3AD179849EB637E0B80C3D4E14A1B914A932FA70238B80AC5317"
        }],
        "wallets": [{
            "account": {
                "address": "WCWZJ2MDCADDQMBV5PITT6J4LPT3JMQGBP7GUOCU",
                "publicKey": "8CBE6C3A82D30B9E333436C849C91C6429F1EC2A3BE793FE1132E9EBE33A9BCD",
                "privateKey": "7D5C70A5D18C97612728AF3A2ECF9274081C7DD6740F08906EEFBAEBB72A04FA"
            },
            "name": "fxx"
        }, {
            "account": {
                "address": "WBE2HHR7E6UAMEAI7EPTJ5AFZOIT7TPGRDMDNGZ5",
                "publicKey": "0F2862C9A527482506683D92A21F912B1C3778E8AFD771471CDFA75C686E0036",
                "privateKey": "1ACEE82607231F93879ACE825ADA1E0EAB9F60CF9F707C66C9AE80D6458FC024"
            },
            "name": "escrow"
        }, {
            "account": {
                "address": "WCO5WYV2NV2VSNYJMJOOVK2E3F7W6JEGRAYHHMDK",
                "publicKey": "56CC06C9AD0FA3EDD68F06F25E1BCC7C1E8496BDF2D0422AF450F5AD4A56D19F",
                "privateKey": "8391E9C0952E78618166090819C957CE018C1DFCE8B93BCB0FBCBB525CDD1674"
            },
            "name": "exchange"
        }, {
            "account": {
                "address": "WBXEB2UTBFF77NRLHGWCHUDJVSECRDMUDF3VOFXV",
                "publicKey": "BB4BF87388A6E71977720C268312044FDA9DD6EAD6FC2B6F2E78D32275C712BC",
                "privateKey": "26E31B87CF3FB1772844F5E380F1BCADDC7936EF4B1B94F33C747339CD021E64"
            },
            "name": "wss"
        }, {
            "account": {
                "address": "WDJZNTN632IPNLZOSRYCL67GL54MX4OY7HC6JRNR",
                "publicKey": "3563D1E194FDF88FD9ABF55031C40C5F17BA89DB152414A2F496E2E7E6F212F5",
                "privateKey": "6DD96DCE6612A6E645B222EB747C471C57B6CDADEA8701499925263D1A9670DA"
            },
            "name": "mgm"
        }, {
            "account": {
                "address": "WDJS3ZCS4HXZBDTVXRKBVO5Q7Z73EPZDRHGSLWGE",
                "publicKey": "1D815B981AE452A998725D703D7E0FAB38B178316AE1296DC170BF49EE5A92A8",
                "privateKey": "279EABB7093A76801F1232842E55ED887C25C9B7B22074C52E51FE30C73C30F8"
            },
            "name": "env"
        }],
        "msu": {
            "address": "WAYLLHN7B3CXWHASWQ5KB2R2N6X6XDCCPEXLWOL5",
            "publicKey": "7699CD74B3E074D7523213D95B5D60EE074C028E3483E3B2A56973AF81548ED1",
            "privateKey": "D527D6E47D10E6C4B68B2003F5931771D27BAFFCE396C3EBE2FF667EEF76F82F"
        },
        "msx": {
            "address": "WAGOZWGDROZ2FIR64I43IL3SZGP4BGCYGDROVJGK",
            "publicKey": "58E1B5862BCDD8B5C808792B87C3F911D5CC3B4017ABAD9EC36F4338B95B5094",
            "privateKey": "D15AAB20EDFC72513D8F846A467374E9100C92F44857FB0D5BF6B2839860E7D2"
        },
        "ic": {
            "address": "WBZ7HVECK5F2Z5ESF4LTIOGWL5H2C5SWL7HQERWJ",
            "publicKey": "9AB228AFC5C6F3E427C913304BEBC6CA79AAE8F437596E2196D154C244096541",
            "privateKey": "81302F765C33EECAC9C668472378597D72AF0E9B8F2D78F064560A25D5327A16"
        }
    }
}